(-10.0, -9944.0), (-9.0, -8438.400000000001), (-8.0, -7097.5999999999985), (-7.0, -5921.5999999999985), (-6.0, -4910.4), (-5.0, -4064.0), (-4.0, -3382.3999999999996), (-3.0, -2865.6), (-2.0, -2513.6), (-1.0, -2326.4), (0.0, -2304.0), (1.0, -2446.4), (2.0, -2753.6), (3.0, -3225.6), (4.0, -3862.3999999999996), (5.0, -4664.0), (6.0, -5630.4), (7.0, -6761.599999999999), (8.0, -8057.5999999999985), (9.0, -9518.400000000001), (10.0, -11144.0)
(-10.0, 1.570475813985359), (-9.0, 1.5703786158751643), (-8.0, 1.5702176231557952), (-7.0, 1.5699050614337422), (-6.0, 1.5690602174280426), (-5.0, 1.5596856728972892), (-4.0, -1.5678201451060698), (-3.0, -1.569371826333929), (-2.0, -1.5698042636282925), (-1.0, -1.569998878798066), (0.0, -1.5701018824620847), (1.0, -1.5701577572776064), (2.0, -1.5701835817735437), (3.0, -1.5701858262602428), (4.0, -1.5701650137474548), (5.0, -1.5701160547909896), (6.0, -1.570024722009756), (7.0, -1.569854707487504), (8.0, -1.5694942441974225), (9.0, -1.5683808725553003), (10.0, -0.0)
(-10.0, None), (-9.0, None), (-8.0, None), (-7.0, None), (-6.0, None), (-5.0, None), (-4.0, None), (-3.0, None), (-2.0, None), (-1.0, 1.845098040014257), (0.0, 2.4608978427565478), (1.0, 2.720985744153739), (2.0, 2.8926510338773), (3.0, 3.0228406108765276), (4.0, 3.1287222843384264), (5.0, 3.2185355052165274), (6.0, 3.2968844755385467), (7.0, 3.3666097103924293), (8.0, 3.4295908022233013), (9.0, 3.4871383754771865), (10.0, 3.5402042998420593)
